{
    "$schema": "https://themost-framework.github.io/themost/models/2018/2/schema.json",
    "@id": "http://schema.org/Event",
    "name": "Event",
    "description": "An event happening at a certain time and location, such as a concert, lecture, or festival. Ticketing information may be added via the <a class=\"localLink\" href=\"http://schema.org/offers\">offers</a> property. Repeated events may be structured as separate Event objects.",
    "title": "Event",
    "abstract": false,
    "sealed": false,
    "implements": "Thing",
    "classPath": "./models/event-model",
    "version": "1.0",
    "fields": [
        {
            "@id": "http://schema.org/about",
            "name": "about",
            "title": "about",
            "description": "The subject matter of the content.",
            "type": "Object"
        },
        {
            "@id": "http://schema.org/audience",
            "name": "audience",
            "title": "audience",
            "description": "An intended audience, i.e. a group for whom something was created.",
            "type": "Audience"
        },
        {
            "@id": "http://schema.org/eventHoursSpecification",
            "name": "eventHoursSpecification",
            "title": "eventHoursSpecification",
            "description": "Event Hours Specification.",
            "type": "EventHoursSpecification"
        },
        {
            "@id": "http://schema.org/remainingAttendeeCapacity",
            "name": "remainingAttendeeCapacity",
            "title": "remainingAttendeeCapacity",
            "description": "The number of attendee places for an event that remain unallocated.",
            "type": "Integer"
        },
        {
            "@id": "http://schema.org/startDate",
            "name": "startDate",
            "title": "startDate",
            "description": "The start date and time of the item (in <a href=\"http://en.wikipedia.org/wiki/ISO_8601\">ISO 8601 date format</a>).",
            "type": "DateTime"
        },
        {
            "@id": "http://schema.org/endDate",
            "name": "endDate",
            "title": "endDate",
            "description": "The end date and time of the item (in <a href=\"http://en.wikipedia.org/wiki/ISO_8601\">ISO 8601 date format</a>).",
            "type": "DateTime"
        },
        {
            "@id": "http://schema.org/doorTime",
            "name": "doorTime",
            "title": "doorTime",
            "description": "The time admission will commence.",
            "type": "DateTime"
        },
        {
            "@id": "http://schema.org/contributor",
            "name": "contributor",
            "title": "contributor",
            "description": "A secondary contributor to the CreativeWork or Event.",
            "type": "User"
        },
        {
            "@id": "http://schema.org/maximumAttendeeCapacity",
            "name": "maximumAttendeeCapacity",
            "title": "maximumAttendeeCapacity",
            "description": "The total number of individuals that may attend an event or venue.",
            "type": "Integer"
        },
        {
            "@id": "http://schema.org/organizer",
            "name": "organizer",
            "title": "organizer",
            "description": "An organizer of an Event.",
            "type": "Department"
        },
        {
            "@id": "http://schema.org/attendees",
            "name": "attendees",
            "title": "attendees",
            "description": "A person attending the event.",
            "type": "User",
            "many": true
        },
        {
            "@id": "http://schema.org/inLanguage",
            "name": "inLanguage",
            "title": "inLanguage",
            "description": "The language of the content or performance or used in an action. Please use one of the language codes from the <a href=\"http://tools.ietf.org/html/bcp47\">IETF BCP 47 standard</a>. See also <a class=\"localLink\" href=\"http://schema.org/availableLanguage\">availableLanguage</a>.",
            "type": "Language"
        },
        {
            "@id": "http://schema.org/eventStatus",
            "name": "eventStatus",
            "title": "eventStatus",
            "description": "An eventStatus of an event represents its status; particularly useful when an event is cancelled or rescheduled.",
            "type": "EventStatusType",
            "expandable": true,
            "value":"javascript:return { alternateName:'EventOpened' };"
        },
        {
            "@id": "http://schema.org/superEvent",
            "name": "superEvent",
            "title": "superEvent",
            "description": "An event that this event is a part of. For example, a collection of individual music performances might each have a music festival as their superEvent.",
            "type": "Event"
        },
        {
            "@id": "http://schema.org/duration",
            "name": "duration",
            "title": "duration",
            "description": "The duration of the item (movie, audio recording, event, etc.) in <a href=\"http://en.wikipedia.org/wiki/ISO_8601\">ISO 8601 date format</a>.",
            "type": "Duration"
        },
        {
            "@id": "http://schema.org/previousStartDate",
            "name": "previousStartDate",
            "title": "previousStartDate",
            "description": "Used in conjunction with eventStatus for rescheduled or cancelled events. This property contains the previously scheduled start date. For rescheduled events, the startDate property should be used for the newly scheduled start date. In the (rare) case of an event that has been postponed and rescheduled multiple times, this field may be repeated.",
            "type": "Date"
        },
        {
            "@id": "http://schema.org/location",
            "name": "location",
            "title": "location",
            "description": "The location of for example where the event is happening, an organization is located, or where an action takes place.",
            "type": "Place"
        },
        {
            "@id": "http://schema.org/isAccessibleForFree",
            "name": "isAccessibleForFree",
            "title": "isAccessibleForFree",
            "description": "A flag to signal that the item, event, or place is accessible for free.",
            "type": "Boolean"
        },
        {
            "@id": "http://schema.org/performer",
            "name": "performer",
            "title": "performer",
            "description": "A performer at the event, for example, a presenter, musician, musical group or actor.",
            "type": "User"
        }
    ],
    "eventListeners": [
        {
            "type": "./listeners/calculate-event-duration-listener"
        },
        {
            "type": "./listeners/generate-sub-events-listener"
        },
        {
            "type": "./listeners/before-save-event-status-listener"
        }

    ],
    "privileges": [
        {
            "mask": 1,
            "type": "global",
            "account": "*"
        },
        {
            "mask": 15,
            "type": "global"
        },
        {
            "mask": 15,
            "type": "global",
            "account": "Administrators"
        }
    ]
}
