{
    "$schema": "https://themost-framework.github.io/themost/models/2018/2/schema.json",
    "@id": "http://schema.org/EventHoursSpecification",
    "name": "EventHoursSpecification",
    "description": "A structured value providing information about the opening hours of a place or a certain service inside a place.</p>\n\n<p>The place is <strong>open</strong> if the <a class=\"localLink\" href=\"http://schema.org/opens\">opens</a> property is specified, and <strong>closed</strong> otherwise.</p>\n\n<p>If the value for the <a class=\"localLink\" href=\"http://schema.org/closes\">closes</a> property is less than the value for the <a class=\"localLink\" href=\"http://schema.org/opens\">opens</a> property then the hour range is assumed to span over the next day.",
    "title": "EventHoursSpecification",
    "abstract": false,
    "sealed": false,
    "version": "1.1",
    "implements": "StructuredValue",
    "classPath": "./models/event-hours-specification-model",
    "fields": [
        {
            "@id": "http://schema.org/validFrom",
            "name": "validFrom",
            "title": "validFrom",
            "description": "The date when the item becomes valid.",
            "type": "DateTime"
        },
        {
            "@id": "http://schema.org/validThrough",
            "name": "validThrough",
            "title": "validThrough",
            "description": "The date after when the item is not valid. For example the end of an offer, salary period, or a period of opening hours.",
            "type": "DateTime"
        },
        {
            "@id": "http://schema.org/opens",
            "name": "opens",
            "title": "opens",
            "description": "The opening hour of the place or service on the given day(s) of the week.",
            "type": "Time"
        },
        {
            "@id": "http://schema.org/duration",
            "name": "duration",
            "title": "duration",
            "description": "The duration of the item (movie, audio recording, event, etc.) in <a href=\"http://en.wikipedia.org/wiki/ISO_8601\">ISO 8601 date format</a>.",
            "type": "Duration"
        },

        {
            "@id": "http://schema.org/closes",
            "name": "closes",
            "title": "closes",
            "description": "The closing hour of the place or service on the given day(s) of the week.",
            "type": "Time"
        },
        {
            "@id": "http://schema.org/minuteOfDay",
            "name": "minuteOfHour",
            "type": "Text",
            "value":"javascript:return '*';"
        },
        {
            "@id": "http://schema.org/hourOfDay",
            "name": "hourOfDay",
            "type": "Text",
            "value":"javascript:return '*';"
        },
        {
            "@id": "http://schema.org/dayOfMonth",
            "name": "dayOfMonth",
            "type": "Text",
            "value":"javascript:return '*';"
        },
        {
            "@id": "http://schema.org/monthOfYear",
            "name": "monthOfYear",
            "type": "Text",
            "value":"javascript:return '*';"
        },
        {
            "@id": "http://schema.org/dayOfWeek",
            "name": "dayOfWeek",
            "title": "dayOfWeek",
            "description": "The day of the week for which these opening hours are valid.",
            "type": "Text",
            "value":"javascript:return '*';"
        },
        {
            "@id": "http://schema.org/identifier",
            "name": "identifier",
            "title": "identifier",
            "description": "The identifier property represents any kind of identifier for any kind of <a class=\"localLink\" href=\"http://schema.org/Thing\">Thing</a>, such as ISBNs, GTIN codes, UUIDs etc. Schema.org provides dedicated properties for representing many of these, either as textual strings or as URL (URI) links. See <a href=\"/docs/datamodel.html#identifierBg\">background notes</a> for more details.",
            "type": "Text",
            "value": "javascript:return this.newGuid();"
        }
    ],
    "constraints": [
        {
            "type": "unique",
            "fields": [
                "identifier"
            ]
        }
    ],
    "privileges": [
        {
            "mask": 1,
            "type": "global",
            "account": "*"
        },
        {
            "mask": 3,
            "type": "self",
            "account": "Instructors",
            "filter": "createdBy eq me() or modifiedBy eq me()"
        },
        {
            "mask": 15,
            "type": "global"
        },
        {
            "mask": 15,
            "type": "global",
            "account": "Administrators"
        }
    ]
}
