[
    {
        "scope": [
            "students",
            "teachers"
        ],
        "resource": "/api/TimetableEvents/?$",
        "access": [
            "read"
        ]
    },
    {
        "scope": [
            "teachers",
            "students"
        ],
        "resource": "/api/EventStatusTypes/?$",
        "access": [
            "read"
        ]
    }
]
